.......................
----------------------------------------------------------------------
Ran 23 tests in 0.058s

OK
Name             Stmts   Miss Branch BrPart  Cover   Missing
------------------------------------------------------------
Collatz.py          51      1     22      1    97%   77
TestCollatz.py      95      0      0      0   100%
------------------------------------------------------------
TOTAL              146      1     22      1    99%
