.....................
----------------------------------------------------------------------
Ran 21 tests in 2.643s

OK
Name             Stmts   Miss  Cover   Missing
----------------------------------------------
Collatz.py          37      0   100%
TestCollatz.py      90      0   100%
----------------------------------------------
TOTAL              127      0   100%
