.....................
----------------------------------------------------------------------
Ran 21 tests in 0.325s

OK
Name             Stmts   Miss Branch BrPart  Cover   Missing
------------------------------------------------------------
Collatz.py          74      0     32      0   100%
TestCollatz.py      89      0      0      0   100%
------------------------------------------------------------
TOTAL              163      0     32      0   100%
