....................
----------------------------------------------------------------------
Ran 20 tests in 0.142s

OK
Name             Stmts   Miss Branch BrPart  Cover   Missing
------------------------------------------------------------
Collatz.py          50      0     20      0   100%
TestCollatz.py      91      0      0      0   100%
------------------------------------------------------------
TOTAL              141      0     20      0   100%